{
"count": 87,
"next": "https://swapi.co/api/people/?page=2&format=json",
"previous": null,
"results": [
{
"name": "Luke Skywalker",
"height": "172",
"mass": "77",
"hair_color": "blond",
"skin_color": "fair",
"eye_color": "blue",
"birth_year": "19BBY",
"gender": "male",
"homeworld": "https://swapi.co/api/planets/1/",
"films": [
"https://swapi.co/api/films/2/",
"https://swapi.co/api/films/6/",
"https://swapi.co/api/films/3/",
"https://swapi.co/api/films/1/",
"https://swapi.co/api/films/7/"
],
"species": [
"https://swapi.co/api/species/1/"
],
"vehicles": [
"https://swapi.co/api/vehicles/14/",
"https://swapi.co/api/vehicles/30/"
],
"starships": [
"https://swapi.co/api/starships/12/",
"https://swapi.co/api/starships/22/"
],
"created": "2014-12-09T13:50:51.644000Z",
"edited": "2014-12-20T21:17:56.891000Z",
"url": "https://swapi.co/api/people/1/"
},
{
"name": "Leia Organa",
"height": "150",
"mass": "49",
"hair_color": "brown",
"skin_color": "light",
"eye_color": "brown",
"birth_year": "19BBY",
"gender": "female",
"homeworld": "https://swapi.co/api/planets/2/",
"films": [
"https://swapi.co/api/films/2/",
"https://swapi.co/api/films/6/",
"https://swapi.co/api/films/3/",
"https://swapi.co/api/films/1/",
"https://swapi.co/api/films/7/"
],
"species": [
"https://swapi.co/api/species/1/"
],
"vehicles": [
"https://swapi.co/api/vehicles/30/"
],
"starships": [],
"created": "2014-12-10T15:20:09.791000Z",
"edited": "2014-12-20T21:17:50.315000Z",
"url": "https://swapi.co/api/people/5/"
},
{
"name": "Obi-Wan Kenobi",
"height": "182",
"mass": "77",
"hair_color": "auburn, white",
"skin_color": "fair",
"eye_color": "blue-gray",
"birth_year": "57BBY",
"gender": "male",
"homeworld": "https://swapi.co/api/planets/20/",
"films": [
"https://swapi.co/api/films/2/",
"https://swapi.co/api/films/5/",
"https://swapi.co/api/films/4/",
"https://swapi.co/api/films/6/",
"https://swapi.co/api/films/3/",
"https://swapi.co/api/films/1/"
],
"species": [
"https://swapi.co/api/species/1/"
],
"vehicles": [
"https://swapi.co/api/vehicles/38/"
],
"starships": [
"https://swapi.co/api/starships/48/",
"https://swapi.co/api/starships/59/",
"https://swapi.co/api/starships/64/",
"https://swapi.co/api/starships/65/",
"https://swapi.co/api/starships/74/"
],
"created": "2014-12-10T16:16:29.192000Z",
"edited": "2014-12-20T21:17:50.325000Z",
"url": "https://swapi.co/api/people/10/"
},
{
"name": "Anakin Skywalker",
"height": "188",
"mass": "84",
"hair_color": "blond",
"skin_color": "fair",
"eye_color": "blue",
"birth_year": "41.9BBY",
"gender": "male",
"homeworld": "https://swapi.co/api/planets/1/",
"films": [
"https://swapi.co/api/films/5/",
"https://swapi.co/api/films/4/",
"https://swapi.co/api/films/6/"
],
"species": [
"https://swapi.co/api/species/1/"
],
"vehicles": [
"https://swapi.co/api/vehicles/44/",
"https://swapi.co/api/vehicles/46/"
],
"starships": [
"https://swapi.co/api/starships/59/",
"https://swapi.co/api/starships/65/",
"https://swapi.co/api/starships/39/"
],
"created": "2014-12-10T16:20:44.310000Z",
"edited": "2014-12-20T21:17:50.327000Z",
"url": "https://swapi.co/api/people/11/"
},
{
"name": "Chewbacca",
"height": "228",
"mass": "112",
"hair_color": "brown",
"skin_color": "unknown",
"eye_color": "blue",
"birth_year": "200BBY",
"gender": "male",
"homeworld": "https://swapi.co/api/planets/14/",
"films": [
"https://swapi.co/api/films/2/",
"https://swapi.co/api/films/6/",
"https://swapi.co/api/films/3/",
"https://swapi.co/api/films/1/",
"https://swapi.co/api/films/7/"
],
"species": [
"https://swapi.co/api/species/3/"
],
"vehicles": [
"https://swapi.co/api/vehicles/19/"
],
"starships": [
"https://swapi.co/api/starships/10/",
"https://swapi.co/api/starships/22/"
],
"created": "2014-12-10T16:42:45.066000Z",
"edited": "2014-12-20T21:17:50.332000Z",
"url": "https://swapi.co/api/people/13/"
},
{
"name": "Wedge Antilles",
"height": "170",
"mass": "77",
"hair_color": "brown",
"skin_color": "fair",
"eye_color": "hazel",
"birth_year": "21BBY",
"gender": "male",
"homeworld": "https://swapi.co/api/planets/22/",
"films": [
"https://swapi.co/api/films/2/",
"https://swapi.co/api/films/3/",
"https://swapi.co/api/films/1/"
],
"species": [
"https://swapi.co/api/species/1/"
],
"vehicles": [
"https://swapi.co/api/vehicles/14/"
],
"starships": [
"https://swapi.co/api/starships/12/"
],
"created": "2014-12-12T11:08:06.469000Z",
"edited": "2014-12-20T21:17:50.341000Z",
"url": "https://swapi.co/api/people/18/"
},
{
"name": "Qui-Gon Jinn",
"height": "193",
"mass": "89",
"hair_color": "brown",
"skin_color": "fair",
"eye_color": "blue",
"birth_year": "92BBY",
"gender": "male",
"homeworld": "https://swapi.co/api/planets/28/",
"films": [
"https://swapi.co/api/films/4/"
],
"species": [
"https://swapi.co/api/species/1/"
],
"vehicles": [
"https://swapi.co/api/vehicles/38/"
],
"starships": [],
"created": "2014-12-19T16:54:53.618000Z",
"edited": "2014-12-20T21:17:50.375000Z",
"url": "https://swapi.co/api/people/32/"
},
{
"name": "Darth Maul",
"height": "175",
"mass": "80",
"hair_color": "none",
"skin_color": "red",
"eye_color": "yellow",
"birth_year": "54BBY",
"gender": "male",
"homeworld": "https://swapi.co/api/planets/36/",
"films": [
"https://swapi.co/api/films/4/"
],
"species": [
"https://swapi.co/api/species/22/"
],
"vehicles": [
"https://swapi.co/api/vehicles/42/"
],
"starships": [
"https://swapi.co/api/starships/41/"
],
"created": "2014-12-19T18:00:41.929000Z",
"edited": "2014-12-20T21:17:50.403000Z",
"url": "https://swapi.co/api/people/44/"
},
{
"name": "Dooku",
"height": "193",
"mass": "80",
"hair_color": "white",
"skin_color": "fair",
"eye_color": "brown",
"birth_year": "102BBY",
"gender": "male",
"homeworld": "https://swapi.co/api/planets/52/",
"films": [
"https://swapi.co/api/films/5/",
"https://swapi.co/api/films/6/"
],
"species": [
"https://swapi.co/api/species/1/"
],
"vehicles": [
"https://swapi.co/api/vehicles/55/"
],
"starships": [],
"created": "2014-12-20T16:52:14.726000Z",
"edited": "2014-12-20T21:17:50.462000Z",
"url": "https://swapi.co/api/people/67/"
},
{
"name": "Zam Wesell",
"height": "168",
"mass": "55",
"hair_color": "blonde",
"skin_color": "fair, green, yellow",
"eye_color": "yellow",
"birth_year": "unknown",
"gender": "female",
"homeworld": "https://swapi.co/api/planets/54/",
"films": [
"https://swapi.co/api/films/5/"
],
"species": [
"https://swapi.co/api/species/30/"
],
"vehicles": [
"https://swapi.co/api/vehicles/45/"
],
"starships": [],
"created": "2014-12-20T16:57:44.471000Z",
"edited": "2014-12-20T21:17:50.468000Z",
"url": "https://swapi.co/api/people/70/"
},
{
"name": "Grievous",
"height": "216",
"mass": "159",
"hair_color": "none",
"skin_color": "brown, white",
"eye_color": "green, yellow",
"birth_year": "unknown",
"gender": "male",
"homeworld": "https://swapi.co/api/planets/59/",
"films": [
"https://swapi.co/api/films/6/"
],
"species": [
"https://swapi.co/api/species/36/"
],
"vehicles": [
"https://swapi.co/api/vehicles/60/"
],
"starships": [
"https://swapi.co/api/starships/74/"
],
"created": "2014-12-20T19:43:53.348000Z",
"edited": "2014-12-20T21:17:50.488000Z",
"url": "https://swapi.co/api/people/79/"
}
]
}